IP Address,Subnet Mask,CIDR,Type
208.75.74.0,255.255.255.0,24,4
198.161.218.0,255.255.255.0,24,4
209.115.220.0,255.255.254.0,23,4
2620:101:c000::,FALSE,40,6
129.128.0.0,255.255.0.0,16,4
199.185.2.0,255.255.254.0,23,4
198.73.178.0,255.255.255.0,24,4
142.244.0.0,255.255.0.0,16,4
162.244.228.0,255.255.255.0,24,4
